Customer Name,Email,Contact,Property Location,BHK,REQUEST TIME,REQUEST DATE
,,,,,,
santosh,santosh2686@gmail.com,9870151748,"GRT Homes, Boisar",Duplex,00:08:02,02-02-2013
santosh,santosh2686@gmail.com,9870151748,"Shanti Enclave, Varanasi","3 BHK",00:31:57,02-02-2013
vikas,vikas@gmail.com,9870654823,"GRT Homes, Boisar",Duplex,01:02:48,03-02-2013
